%YAML 1.1
%TAG !u! tag:unity3d.com,2011:
--- !u!114 &11400000
MonoBehaviour:
  m_ObjectHideFlags: 0
  m_CorrespondingSourceObject: {fileID: 0}
  m_PrefabInstance: {fileID: 0}
  m_PrefabAsset: {fileID: 0}
  m_GameObject: {fileID: 0}
  m_Enabled: 1
  m_EditorHideFlags: 0
  m_Script: {fileID: 11500000, guid: f7fcd84db6e14c51b4f20c6fd991eec6, type: 3}
  m_Name: BossKey
  m_EditorClassIdentifier: 
  _itemName: Epic Boss key
  _description: An epic boss key you received after a huge fight!
  _itemSprite: {fileID: 21300000, guid: eb5f6e2757c821940b69cf1456f7865a, type: 3}
  _consumeUponUse: 0
  _isUnique: 1
  _itemMesh: {fileID: 4300004, guid: 00718395eefb6084bb25555f962f25c0, type: 3}
