%YAML 1.1
%TAG !u! tag:unity3d.com,2011:
--- !u!114 &11400000
MonoBehaviour:
  m_ObjectHideFlags: 0
  m_CorrespondingSourceObject: {fileID: 0}
  m_PrefabInstance: {fileID: 0}
  m_PrefabAsset: {fileID: 0}
  m_GameObject: {fileID: 0}
  m_Enabled: 1
  m_EditorHideFlags: 0
  m_Script: {fileID: 11500000, guid: 9b3f5cddb3653c74b8fb7e8b34e7a613, type: 3}
  m_Name: PotionBag
  m_EditorClassIdentifier: 
  _itemType: {fileID: 11400000, guid: ea82b3a5bd371e54d9b54d82415bd880, type: 2}
  _maximumCount: 5
